A Website - Projects
…
Projects

Use the outline to the right to jump to a project.

R: Determining Capacity

Management at a DV organization wanted more information on whether or not they were running at full capacity so that they could strategize around serving the greatest number of clients.

Starting with a basic anonymized data set showing a client ID, admission date, exit date and program, like below:

# A tibble: 124 x 4
   admission_date client_id discharge_date location            
   <date>             <dbl> <date>         <chr>               
 1 2019-11-11           176 NA             Transitional Housing
 2 2019-11-18           405 NA             Transitional Housing
 3 2019-11-26           399 2022-01-31     Transitional Housing
 4 2019-12-01           267 NA             Transitional Housing
 5 2019-12-19           363 2022-02-01     Shelter             
 6 2019-12-19           364 2022-02-01     Shelter             
 7 2020-01-01           202 2022-01-24     Transitional Housing
 8 2020-01-08           301 NA             Transitional Housing
 9 2020-01-09           372 2022-03-31     Shelter             
10 2020-02-01           716 2022-06-30     Transitional Housing
# ... with 114 more rows
…
